Exercício 5 - Descrevendo uma paisagem – Diário de Ecologia de Paisagens
…
# Visualizar tabela no documento
tabela_final

# A tibble: 67 × 7
   id_buffer classe pixels total_px percentagem Categoria                  Cores
       <dbl>  <dbl>  <int>    <int>       <dbl> <chr>                      <chr>
 1         1      3    797      887      89.9   Formação Florestal         #1f8…
 2         1     21     84      887       9.47  Mosaico de Usos            #ffe…
 3         1     24      6      887       0.676 Área Urbanizada            #d42…
 4         2     24    470      880      53.4   Área Urbanizada            #d42…
 5         2      5    376      880      42.7   Mangue                     #043…
 6         2      3     23      880       2.61  Formação Florestal         #1f8…
 7         2     21      7      880       0.795 Mosaico de Usos            #ffe…
 8         2     11      2      880       0.227 Campo Alagado e Área Pant… #519…
 9         2     32      1      880       0.114 Apicum                     #fc8…
10         2     33      1      880       0.114 Rio, Lago e Oceano         #253…
# ℹ 57 more rows
…
